{
  "properties": [
    {
      "name": "javax.validation.constraints.Future.message",
      "type": "java.lang.String",
      "description": "Description for javax.validation.constraints.Future.message."
    },
    {
      "name": "javax.validation.constraints.NotNull.message",
      "type": "java.lang.String",
      "description": "Description for javax.validation.constraints.NotNull.message."
    },
    {
      "name": "javax.validation.constraints.Size.message",
      "type": "java.lang.String",
      "description": "Description for javax.validation.constraints.Size.message."
    }
  ] }